{
    "tags": {
        "allowUnknownTags": true,
        "dictionaries": ["jsdoc"]
    },
    "source": {
        "include": ["app.js", "utils.js"],
        "exclude": ["node_modules"]
    },
    "opts": {
        "destination": "./jsdoc"
    },
    "templates": {
        "cleverLinks": false,
        "monospaceLinks": false
    }
}

